name="Random Tag Switch"
path="/home/lakortar/.local/share/Paradox Interactive/Europa Universalis IV/mod/randomtagswitch"
tags={
	"Gameplay"
}
picture="randomtagswitch.png"
supported_version="1.30.*.*"
remote_file_id="697521727"